Attached devices: 
Host: scsi0 Channel: 00 Id: 02 Lun: 00
  Vendor: Color    Model: FlatbedScanner18 Rev: 0060
  Type:   Scanner                          ANSI SCSI revision: 02
Host: scsi1 Channel: 00 Id: 00 Lun: 00
  Vendor: ATAPI    Model: CD-R/RW 4X4X32   Rev: 3.MR
  Type:   CD-ROM                           ANSI SCSI revision: 02
Host: scsi2 Channel: 00 Id: 06 Lun: 00
  Vendor: IOMEGA   Model: ZIP 100          Rev: D.06
  Type:   Direct-Access                    ANSI SCSI revision: 02

