[sanei_init_debug]: Setting debug level of mustek to 5.
[mustek] SANE Mustek backend version 1.0 build 86 (SANE 1.0.2)
[mustek] sane_init: authorize == null
[mustek] sane_init: using sanei_scsi_open_extended
[mustek] sane_init: reading config file `mustek.conf'
[mustek] sane_init: config file line 1: ignoring comment line
[mustek] sane_init: config file line 2: ignoring empty line
[mustek] sane_init: config file line 3: strip-height set to 1 inches
[mustek] sane_init: config file line 4: ignoring comment line
[mustek] sane_init: config file line 5: ignoring empty line
[mustek] sane_init: config file line 6: trying to attach `scsi MUSTEK * Scanner'
[mustek] sane_init: config file line 7: ignoring comment line
[mustek] sane_init: config file line 8: ignoring comment line
[mustek] sane_init: config file line 9: option lineart-fix ignored, was set before any device name
[mustek] sane_init: config file line 10: ignoring empty line
[mustek] sane_init: config file line 11: trying to attach `scsi SCANNER'
[mustek] attach: trying device /dev/sga
[mustek] dev_open /dev/sga
[mustek] dev_open: /dev/sga is a SCSI device
[mustek] dev_open: wanted 8 kbytes, got 8 kbytes buffer
[mustek] attach: sending INQUIRY
[mustek] scsi_wait_ready: sending TEST_UNIT_READY
[mustek] attach: SCSI Vendor: `SCANNER ' Model: `                ' Rev.: `1.01'
[mustek] attach: SCSI Type: Scanner; ANSI rev.: 1
[mustek] attach: SCSI flags: 
[mustek] attach: inquiry output:
[mustek]  06 00 01 01 5b 01 00 00 53 43 41 4e 4e 45 52 20  ....[...SCANNER 
[mustek]  20 20 20 20 20 20 20 20 20 20 20 20 20 20 20 20                  
[mustek]  31 2e 30 31 4d 55 53 54 45 4b 20 20 20 4c 30 33  1.01MUSTEK   L03
[mustek]  20 53 31 32 49 44 57 4d 31 32 33 37 31 37 01 00   S12IDWM123717..
[mustek]  01 03 01 01 00 00 00 00 00 00 00 00 00 00 00 00  ................
[mustek]  00 00 00 00 00 00 00 00 00 00 00 00 00 00 00 ff  ................
[mustek] attach: found Mustek scanner (new firmware format)
[mustek] attach: old firmware revision system
[mustek] attach: firmware revision 1.01
[mustek] attach: scanner id:  L03 S12IDW
[mustek] attach: I am not sure what type of scanner this is
[mustek] attach: this Mustek scanner (ID:  L03 S12IDWM123717) is not supported yet
[mustek] attach: please set the debug level to 5 and send a debug report
[mustek] attach: to sane-devel@mostang.com (export SANE_DEBUG_MUSTEK=5
[mustek] attach: scanimage -L 2>debug.txt . Thank you.
[mustek] sane_init: config file line 12: ignoring comment line
[mustek] sane_init: config file line 13: ignoring comment line
[mustek] sane_init: config file line 14: option lineart-fix ignored, was set before any device name
[mustek] sane_init: config file line 15: ignoring empty line
[mustek] sane_init: config file line 16: trying to attach `/dev/scanner'
[mustek] attach: trying device /dev/scanner
[mustek] dev_open /dev/scanner
[mustek] dev_open: /dev/scanner is a SCSI device
[mustek] dev_open: wanted 8 kbytes, got 8 kbytes buffer
[mustek] attach: sending INQUIRY
[mustek] scsi_wait_ready: sending TEST_UNIT_READY
[mustek] attach: SCSI Vendor: `SCANNER ' Model: `                ' Rev.: `1.01'
[mustek] attach: SCSI Type: Scanner; ANSI rev.: 1
[mustek] attach: SCSI flags: 
[mustek] attach: inquiry output:
[mustek]  06 00 01 01 5b 01 00 00 53 43 41 4e 4e 45 52 20  ....[...SCANNER 
[mustek]  20 20 20 20 20 20 20 20 20 20 20 20 20 20 20 20                  
[mustek]  31 2e 30 31 4d 55 53 54 45 4b 20 20 20 4c 30 33  1.01MUSTEK   L03
[mustek]  20 53 31 32 49 44 57 4d 31 32 33 37 31 37 01 00   S12IDWM123717..
[mustek]  01 03 01 01 00 00 00 00 00 00 00 00 00 00 00 00  ................
[mustek]  00 00 00 00 00 00 00 00 00 00 00 00 00 00 00 ff  ................
[mustek] attach: found Mustek scanner (new firmware format)
[mustek] attach: old firmware revision system
[mustek] attach: firmware revision 1.01
[mustek] attach: scanner id:  L03 S12IDW
[mustek] attach: I am not sure what type of scanner this is
[mustek] attach: this Mustek scanner (ID:  L03 S12IDWM123717) is not supported yet
[mustek] attach: please set the debug level to 5 and send a debug report
[mustek] attach: to sane-devel@mostang.com (export SANE_DEBUG_MUSTEK=5
[mustek] attach: scanimage -L 2>debug.txt . Thank you.
[mustek] sane_init: config file line 17: ignoring comment line
[mustek] sane_init: config file line 18: ignoring comment line
[mustek] sane_init: config file line 19: option lineart-fix ignored, was set before any device name
[mustek] sane_get_devices 
[mustek] sane_exit
